…
```
## Warning: Returning more (or less) than 1 row per `summarise()` group was deprecated in
## dplyr 1.1.0.
## ℹ Please use `reframe()` instead.
## ℹ When switching from `summarise()` to `reframe()`, remember that `reframe()`
##   always returns an ungrouped data frame and adjust accordingly.
## Call `lifecycle::last_lifecycle_warnings()` to see where this warning was
## generated.
```

```
## # A tibble: 1,055,015 × 7
##    continent geo_region    country    scientific_name common_name taxonomic_code
##    <fct>     <fct>         <fct>      <fct>           <fct>       <fct>         
##  1 Asia      Southern Asia Afghanist… Osteichthyes    Freshwater… 1990XXXXXXXX1…
##  2 Asia      Southern Asia Afghanist… Osteichthyes    Freshwater… 1990XXXXXXXX1…
##  3 Asia      Southern Asia Afghanist… Osteichthyes    Freshwater… 1990XXXXXXXX1…
##  4 Asia      Southern Asia Afghanist… Osteichthyes    Freshwater… 1990XXXXXXXX1…
##  5 Asia      Southern Asia Afghanist… Osteichthyes    Freshwater… 1990XXXXXXXX1…
##  6 Asia      Southern Asia Afghanist… Osteichthyes    Freshwater… 1990XXXXXXXX1…
##  7 Asia      Southern Asia Afghanist… Osteichthyes    Freshwater… 1990XXXXXXXX1…
##  8 Asia      Southern Asia Afghanist… Osteichthyes    Freshwater… 1990XXXXXXXX1…
##  9 Asia      Southern Asia Afghanist… Osteichthyes    Freshwater… 1990XXXXXXXX1…
## 10 Asia      Southern Asia Afghanist… Osteichthyes    Freshwater… 1990XXXXXXXX1…
## # ℹ 1,055,005 more rows
## # ℹ 1 more variable: status <fct>
```
…
6. In 2023, what were the top five countries that had the highest overall catch?

``` r
 fisheries_clean %>% 
  filter(period=="2023") %>% 
  group_by(country) %>% 
  summarise(avg_catch=sum(catch, na.rm=T)) %>% 
  arrange(desc(avg_catch))
```

```
## # A tibble: 238 × 2
##    country                  avg_catch
##    <chr>                        <dbl>
##  1 China                    13424705.
##  2 Indonesia                 7820833.
##  3 India                     6177985.
##  4 Russian Federation        5398032 
##  5 United States of America  4623694 
##  6 Peru                      3519381.
##  7 Viet Nam                  3417238.
##  8 Japan                     2904942.
##  9 Chile                     2596488.
## 10 Norway                    2546846.
## # ℹ 228 more rows
```

7. In 2023, what were the top 10 most caught species? To keep things simple, assume `common_name` is sufficient to identify species. What does `NEI` stand for in some of the common names? How might this be concerning from a fisheries management perspective?

``` r
 fisheries_clean %>% 
  filter(period=="2023") %>% 
  group_by(common_name) %>% 
  summarise(number_caught=sum(catch)) %>% 
  arrange(desc(number_caught))
```

```
## # A tibble: 2,870 × 2
##    common_name                    number_caught
##    <chr>                                  <dbl>
##  1 Marine fishes NEI                   8553907.
##  2 Freshwater fishes NEI               5880104.
##  3 Alaska pollock(=Walleye poll.)      3543411.
##  4 Skipjack tuna                       2954736.
##  5 Anchoveta(=Peruvian anchovy)        2415709.
##  6 Blue whiting(=Poutassou)            1739484.
##  7 Pacific sardine                     1678237.
##  8 Yellowfin tuna                      1601369.
##  9 Atlantic herring                    1432807.
## 10 Scads NEI                           1344190.
## # ℹ 2,860 more rows
```
…
``` r
fisheries_clean %>% 
  group_by(period) %>% 
  summarise(avg_catch=sum(catch, na.rm=T)) %>% 
  arrange(desc(avg_catch))
```

```
## # A tibble: 74 × 2
##    period avg_catch
##     <dbl>     <dbl>
##  1   2018 99039627.
##  2   1996 96722828.
##  3   2000 96581944.
##  4   2004 96222870.
##  5   1997 96003718.
##  6   2017 95975677.
##  7   2005 95844883.
##  8   1995 95185361.
##  9   2019 95147897.
## 10   1999 94722921.
## # ℹ 64 more rows
```

``` r
fisheries_clean %>% 
  filter(period=="2018") %>% 
  group_by(country) %>% 
  summarise(avg_catch=sum(catch, na.rm=T)) %>% 
  arrange(desc(avg_catch))
```

```
## # A tibble: 241 × 2
##    country                  avg_catch
##    <chr>                        <dbl>
##  1 China                    14831109.
##  2 Indonesia                 7316475.
##  3 Peru                      7208637.
##  4 United States of America  5395806 
##  5 India                     5336183.
##  6 Russian Federation        5128230.
##  7 Viet Nam                  3386291 
##  8 Japan                     3383709.
##  9 Norway                    2671006.
## 10 Chile                     2371683.
## # ℹ 231 more rows
```
…
